{
  "header": {
    "alg": "RS256",
    "kid": "rsa1"
  },
  "payload": {
    "azp": "some-service",
    "exp": 1672251051,
    "iat": 1672250452,
    "isTokenAuthentication": true,
    "iss": "https://oauth.example.com/oidc/",
    "jti": "20007110-d2e7-4090-9604-3276d22a2e44",
    "sub": "user@example.com"
  }
}
